%YAML 1.1
%TAG !u! tag:unity3d.com,2011:
--- !u!1 &363781347
GameObject:
  m_ObjectHideFlags: 0
  m_CorrespondingSourceObject: {fileID: 0}
  m_PrefabInstance: {fileID: 0}
  m_PrefabAsset: {fileID: 0}
  serializedVersion: 6
  m_Component:
  - component: {fileID: 363781348}
  - component: {fileID: 363781351}
  - component: {fileID: 363781350}
  - component: {fileID: 363781352}
  - component: {fileID: 363781349}
  m_Layer: 0
  m_Name: SpecialGrav
  m_TagString: SpecialGravity
  m_Icon: {fileID: 0}
  m_NavMeshLayer: 0
  m_StaticEditorFlags: 0
  m_IsActive: 0
--- !u!4 &363781348
Transform:
  m_ObjectHideFlags: 0
  m_CorrespondingSourceObject: {fileID: 0}
  m_PrefabInstance: {fileID: 0}
  m_PrefabAsset: {fileID: 0}
  m_GameObject: {fileID: 363781347}
  m_LocalRotation: {x: -0, y: -0, z: -0, w: 1}
  m_LocalPosition: {x: 2, y: 2, z: 0}
  m_LocalScale: {x: 3.125, y: 3.125, z: 0}
  m_Children: []
  m_Father: {fileID: 1118175042219437950}
  m_RootOrder: 0
  m_LocalEulerAnglesHint: {x: 0, y: 0, z: 0}
--- !u!33 &363781351
MeshFilter:
  m_ObjectHideFlags: 0
  m_CorrespondingSourceObject: {fileID: 0}
  m_PrefabInstance: {fileID: 0}
  m_PrefabAsset: {fileID: 0}
  m_GameObject: {fileID: 363781347}
  m_Mesh: {fileID: 10207, guid: 0000000000000000e000000000000000, type: 0}
--- !u!23 &363781350
MeshRenderer:
  m_ObjectHideFlags: 0
  m_CorrespondingSourceObject: {fileID: 0}
  m_PrefabInstance: {fileID: 0}
  m_PrefabAsset: {fileID: 0}
  m_GameObject: {fileID: 363781347}
  m_Enabled: 0
  m_CastShadows: 1
  m_ReceiveShadows: 1
  m_DynamicOccludee: 1
  m_MotionVectors: 1
  m_LightProbeUsage: 1
  m_ReflectionProbeUsage: 1
  m_RenderingLayerMask: 1
  m_RendererPriority: 0
  m_Materials:
  - {fileID: 10303, guid: 0000000000000000f000000000000000, type: 0}
  m_StaticBatchInfo:
    firstSubMesh: 0
    subMeshCount: 0
  m_StaticBatchRoot: {fileID: 0}
  m_ProbeAnchor: {fileID: 0}
  m_LightProbeVolumeOverride: {fileID: 0}
  m_ScaleInLightmap: 1
  m_PreserveUVs: 0
  m_IgnoreNormalsForChartDetection: 0
  m_ImportantGI: 0
  m_StitchLightmapSeams: 0
  m_SelectedEditorRenderState: 3
  m_MinimumChartSize: 4
  m_AutoUVMaxDistance: 0.5
  m_AutoUVMaxAngle: 89
  m_LightmapParameters: {fileID: 0}
  m_SortingLayerID: 0
  m_SortingLayer: 0
  m_SortingOrder: 0
--- !u!114 &363781352
MonoBehaviour:
  m_ObjectHideFlags: 0
  m_CorrespondingSourceObject: {fileID: 0}
  m_PrefabInstance: {fileID: 0}
  m_PrefabAsset: {fileID: 0}
  m_GameObject: {fileID: 363781347}
  m_Enabled: 1
  m_EditorHideFlags: 0
  m_Script: {fileID: 11500000, guid: ef6118ece268c2543bf12bb8a4a9a90d, type: 3}
  m_Name: 
  m_EditorClassIdentifier: 
--- !u!135 &363781349
SphereCollider:
  m_ObjectHideFlags: 0
  m_CorrespondingSourceObject: {fileID: 0}
  m_PrefabInstance: {fileID: 0}
  m_PrefabAsset: {fileID: 0}
  m_GameObject: {fileID: 363781347}
  m_Material: {fileID: 0}
  m_IsTrigger: 1
  m_Enabled: 1
  serializedVersion: 2
  m_Radius: 0.5
  m_Center: {x: 0, y: 0, z: 0}
--- !u!1001 &7350722168297244046
PrefabInstance:
  m_ObjectHideFlags: 0
  serializedVersion: 2
  m_Modification:
    m_TransformParent: {fileID: 0}
    m_Modifications:
    - target: {fileID: 7604201095091056021, guid: f19181200915c1642ac32d3e4ee1041e,
        type: 3}
      propertyPath: m_Name
      value: Planet
      objectReference: {fileID: 0}
    - target: {fileID: 7604201095091056019, guid: f19181200915c1642ac32d3e4ee1041e,
        type: 3}
      propertyPath: m_LocalPosition.x
      value: 26.6
      objectReference: {fileID: 0}
    - target: {fileID: 7604201095091056019, guid: f19181200915c1642ac32d3e4ee1041e,
        type: 3}
      propertyPath: m_LocalPosition.y
      value: -17.6
      objectReference: {fileID: 0}
    - target: {fileID: 7604201095091056019, guid: f19181200915c1642ac32d3e4ee1041e,
        type: 3}
      propertyPath: m_LocalPosition.z
      value: 0
      objectReference: {fileID: 0}
    - target: {fileID: 7604201095091056019, guid: f19181200915c1642ac32d3e4ee1041e,
        type: 3}
      propertyPath: m_LocalRotation.x
      value: 0
      objectReference: {fileID: 0}
    - target: {fileID: 7604201095091056019, guid: f19181200915c1642ac32d3e4ee1041e,
        type: 3}
      propertyPath: m_LocalRotation.y
      value: 0
      objectReference: {fileID: 0}
    - target: {fileID: 7604201095091056019, guid: f19181200915c1642ac32d3e4ee1041e,
        type: 3}
      propertyPath: m_LocalRotation.z
      value: 0
      objectReference: {fileID: 0}
    - target: {fileID: 7604201095091056019, guid: f19181200915c1642ac32d3e4ee1041e,
        type: 3}
      propertyPath: m_LocalRotation.w
      value: 1
      objectReference: {fileID: 0}
    - target: {fileID: 7604201095091056019, guid: f19181200915c1642ac32d3e4ee1041e,
        type: 3}
      propertyPath: m_RootOrder
      value: 0
      objectReference: {fileID: 0}
    - target: {fileID: 7604201095091056019, guid: f19181200915c1642ac32d3e4ee1041e,
        type: 3}
      propertyPath: m_LocalEulerAnglesHint.x
      value: 0
      objectReference: {fileID: 0}
    - target: {fileID: 7604201095091056019, guid: f19181200915c1642ac32d3e4ee1041e,
        type: 3}
      propertyPath: m_LocalEulerAnglesHint.y
      value: 0
      objectReference: {fileID: 0}
    - target: {fileID: 7604201095091056019, guid: f19181200915c1642ac32d3e4ee1041e,
        type: 3}
      propertyPath: m_LocalEulerAnglesHint.z
      value: 0
      objectReference: {fileID: 0}
    - target: {fileID: 7604201093745634533, guid: f19181200915c1642ac32d3e4ee1041e,
        type: 3}
      propertyPath: m_Enabled
      value: 0
      objectReference: {fileID: 0}
    - target: {fileID: 7604201095091056017, guid: f19181200915c1642ac32d3e4ee1041e,
        type: 3}
      propertyPath: m_Enabled
      value: 0
      objectReference: {fileID: 0}
    - target: {fileID: 7604201094276405926, guid: f19181200915c1642ac32d3e4ee1041e,
        type: 3}
      propertyPath: m_Radius
      value: 2
      objectReference: {fileID: 0}
    - target: {fileID: 7604201094276405931, guid: f19181200915c1642ac32d3e4ee1041e,
        type: 3}
      propertyPath: m_TagString
      value: GravityArea
      objectReference: {fileID: 0}
    m_RemovedComponents:
    - {fileID: 7604201094276405925, guid: f19181200915c1642ac32d3e4ee1041e, type: 3}
  m_SourcePrefab: {fileID: 100100000, guid: f19181200915c1642ac32d3e4ee1041e, type: 3}
--- !u!4 &1118175042219437950 stripped
Transform:
  m_CorrespondingSourceObject: {fileID: 7604201093450443504, guid: f19181200915c1642ac32d3e4ee1041e,
    type: 3}
  m_PrefabInstance: {fileID: 7350722168297244046}
  m_PrefabAsset: {fileID: 0}
